>strace ./execute 
	execve("./execute", ["./execute"], 0x7ffe0d350980 /* 65 vars */) = 0
	write(1, "Hello, world!\n", 14Hello, world!
	)         = 14
	exit(0)                                 = ?
	+++ exited with 0 +++

